<?xml version="1.0" encoding="utf-8" ?>
<svg xmlns="http://www.w3.org/2000/svg" xmlns:ev="http://www.w3.org/2001/xml-events" xmlns:xlink="http://www.w3.org/1999/xlink" baseProfile="full" height="118.62918mm" id="root" version="1.1" viewBox="0 0 110.08969999999998 118.62918" width="110.08969999999998mm">
  <defs/>
  <rect height="6.670039999999999" style="fill: #ffffff; stroke-width:.125; stroke: #000000;" width="108.08969999999998" x="1" y="1"/>
  <text dominant-baseline="baseline" font-family="OpenGost Type B TT" font-size="0" text-anchor="start">
    <tspan dy="-0em" font-family="OpenGost Type B TT" font-size="3.441666666666667" x="2" y="6.670039999999999">DEMOLITION NOTES</tspan>
  </text>
  <rect height="109.95914" style="fill: #ffffff; stroke-width:.125; stroke: #000000;" width="108.08969999999998" x="1" y="7.670039999999999"/>
  <text dominant-baseline="baseline" font-family="OpenGost Type B TT" font-size="0" text-anchor="start">
    <tspan dy="-0em" font-family="OpenGost Type B TT" font-size="3.441666666666667" x="2" y="116.62918">ADDITIONAL DEMOLITION SCOPE</tspan>
    <tspan dy="-1em" font-family="OpenGost Type B TT" font-size="3.441666666666667" x="2" y="116.62918">● SEE MECHANICAL/ELECTRICAL/PLUMBING/FIRE PROTECTION DRAWINGS FOR ANY</tspan>
    <tspan dy="-2em" font-family="OpenGost Type B TT" font-size="3.441666666666667" x="2" y="116.62918">ENGINEER RETAINED BY THE CONTRACTOR</tspan>
    <tspan dy="-3em" font-family="OpenGost Type B TT" font-size="3.441666666666667" x="2" y="116.62918">CONSTRUCTION.  ALL SHORING TO BE DESIGNED BY A LICENSED STRUCTURAL</tspan>
    <tspan dy="-4em" font-family="OpenGost Type B TT" font-size="3.441666666666667" x="2" y="116.62918">EXISTING STRUCTURAL MEMBERS ARE REMOVED TO ACCOMMODATE ANY NEW</tspan>
    <tspan dy="-5em" font-family="OpenGost Type B TT" font-size="3.441666666666667" x="2" y="116.62918">● CONTRACTOR RESPONSIBLE FOR ANY TEMPORARY SHORING NECESSARY WHEN</tspan>
    <tspan dy="-6em" font-family="OpenGost Type B TT" font-size="3.441666666666667" x="2" y="116.62918">LOCAL/STATE/FEDERAL LAWS</tspan>
    <tspan dy="-7em" font-family="OpenGost Type B TT" font-size="3.441666666666667" x="2" y="116.62918">HAZARDOUS MATERIALS AND IF SO, ARE LEGALLY REMOVED IN COMPLIANCE WITH</tspan>
    <tspan dy="-8em" font-family="OpenGost Type B TT" font-size="3.441666666666667" x="2" y="116.62918">● OWNER/GC/SUBS ARE RESPONSIBLE TO TEST IF REMOVED ITEMS CONTAIN ANY</tspan>
    <tspan dy="-9em" font-family="OpenGost Type B TT" font-size="3.441666666666667" x="2" y="116.62918">REQUIRED TO ACCOMMODATE THE PLANNED CONSTRUCTION SCOPE.</tspan>
    <tspan dy="-10em" font-family="OpenGost Type B TT" font-size="3.441666666666667" x="2" y="116.62918">● ADDITIONAL DEMOLITION, BEYOND WHAT IS IDENTIFIED HERE, MAY BE</tspan>
    <tspan dy="-11em" font-family="OpenGost Type B TT" font-size="3.441666666666667" x="2" y="116.62918">IS NECESSARY OUTSIDE TENANT SPACE</tspan>
    <tspan dy="-12em" font-family="OpenGost Type B TT" font-size="3.441666666666667" x="2" y="116.62918">● CONTRACTOR TO NOTIFY OWNER AND/OR LANDLORD OF ANY DEMOLITION THAT</tspan>
    <tspan dy="-13em" font-family="OpenGost Type B TT" font-size="3.441666666666667" x="2" y="116.62918">LEVELING, CHISELING) TO RECEIVE ANY SCHEDULE FINISHED</tspan>
    <tspan dy="-14em" font-family="OpenGost Type B TT" font-size="3.441666666666667" x="2" y="116.62918">● ALL FLOORS TO BE LEVELED AS NECESSARY (GRINDING, PATCHING,</tspan>
    <tspan dy="-15em" font-family="OpenGost Type B TT" font-size="3.441666666666667" x="2" y="116.62918">DEMOLITION SCOPE</tspan>
    <tspan dy="-16em" font-family="OpenGost Type B TT" font-size="3.441666666666667" x="2" y="116.62918">ASSOCIATED FEES) OF ANY SERVICE UTILITIES ASSOCIATED WITH THE</tspan>
    <tspan dy="-17em" font-family="OpenGost Type B TT" font-size="3.441666666666667" x="2" y="116.62918">● CONTRACTOR TO COORDINATE THE DISCONNECTION AND CAPPING (AND ANY</tspan>
    <tspan dy="-18em" font-family="OpenGost Type B TT" font-size="3.441666666666667" x="2" y="116.62918">SPACES THAT ARE OUTSIDE THE DEMOLITION SCOPE.</tspan>
    <tspan dy="-19em" font-family="OpenGost Type B TT" font-size="3.441666666666667" x="2" y="116.62918">● SEAL THE INTAKE/EXHAUST OF ANY DUCTS THAT ROUTE INTO ADJOINING</tspan>
    <tspan dy="-20em" font-family="OpenGost Type B TT" font-size="3.441666666666667" x="2" y="116.62918">DUST/FUMES AND PATCHED/REPAIRED AS NECESSARY</tspan>
    <tspan dy="-21em" font-family="OpenGost Type B TT" font-size="3.441666666666667" x="2" y="116.62918">● CONTRACTOR TO PROTECT ALL EXISTING CONSTRUCTION FROM DAMAGE AND</tspan>
    <tspan dy="-22em" font-family="OpenGost Type B TT" font-size="3.441666666666667" x="2" y="116.62918">  ◦ LIGHT FIXTURES</tspan>
    <tspan dy="-23em" font-family="OpenGost Type B TT" font-size="3.441666666666667" x="2" y="116.62918">  ◦ DOORS AND SIDELIGHTS</tspan>
    <tspan dy="-24em" font-family="OpenGost Type B TT" font-size="3.441666666666667" x="2" y="116.62918">  ◦ BASE TRIM</tspan>
    <tspan dy="-25em" font-family="OpenGost Type B TT" font-size="3.441666666666667" x="2" y="116.62918">  ◦ ACOUSTICAL TILE AND GRID</tspan>
    <tspan dy="-26em" font-family="OpenGost Type B TT" font-size="3.441666666666667" x="2" y="116.62918">● SALVAGE THE FOLLOWING FOR POSSIBLE REUSE AND RELOCATION</tspan>
    <tspan dy="-27em" font-family="OpenGost Type B TT" font-size="3.441666666666667" x="2" y="116.62918">WITH THE ARCHITECT IF THERE IS ANY QUESTION.</tspan>
    <tspan dy="-28em" font-family="OpenGost Type B TT" font-size="3.441666666666667" x="2" y="116.62918">DETERMINATION THEY ARE NOT LOAD BEARING, AND CAN BE REMOVED. CONSULT</tspan>
    <tspan dy="-29em" font-family="OpenGost Type B TT" font-size="3.441666666666667" x="2" y="116.62918">ON THE PLAN, TO BE LOAD BEARING.  CONTRACTOR RESPONSIBLE TO MAKE THE</tspan>
    <tspan dy="-30em" font-family="OpenGost Type B TT" font-size="3.441666666666667" x="2" y="116.62918">● CONTRACTOR TO ASSUME ALL WALLS/COLUMNS INDICATED TO BE DEMOLISHED</tspan>
  </text>
</svg>
