<svg xmlns="http://www.w3.org/2000/svg" xmlns:xlink="http://www.w3.org/1999/xlink" xmlns:ifc="http://www.ifcopenshell.org/ns" width="2637.11mm" height="4929.17mm" viewBox="0 0 2637.11 4929.17">
    <defs>
        <marker id="arrowend" markerWidth="10" markerHeight="7" refX="10" refY="3.5" orient="auto">
          <polygon points="0 0, 10 3.5, 0 7"/>
        </marker>
        <marker id="arrowstart" markerWidth="10" markerHeight="7" refX="0" refY="3.5" orient="auto">
          <polygon points="10 0, 0 3.5, 10 7"/>
        </marker>
    </defs>
    <g ifc:name="Elevation ADA DETAILS-X" class="section" ifc:plane="[[1.000000,0.000000,0.000000,0.000000],[0.000000,1.000000,0.000000,0.000000],[0.000000,0.000000,1.000000,2.743200],[0.000000,0.000000,0.000000,1.000000]]" ifc:matrix3="[[41.666668,0.000000,-10644.848378],[0.000000,41.666668,1321.584030],[0.000000,0.000000,1.000000]]">
        <g class="projection">
            <path d="M1136.24,279.21 L1123.68,279.21"/>
            <path d="M1136.24,153.645 L1136.24,279.21"/>
            <path d="M1123.68,153.645 L1136.24,153.645"/>
            <path d="M1123.68,279.21 L1123.68,153.645"/>
            <path d="M479.118,149.46 L465.941,149.46"/>
            <path d="M465.941,149.46 L414.243,295.952"/>
            <path d="M414.243,295.952 L427.421,295.952"/>
            <path d="M427.421,295.952 L479.118,149.46"/>
            <path d="M366.11,153.645 L366.11,279.21"/>
            <path d="M341.881,153.645 L366.11,153.645"/>
            <path d="M334.719,164.109 L341.881,153.645"/>
            <path d="M353.554,164.109 L334.719,164.109"/>
            <path d="M353.554,279.21 L353.554,164.109"/>
            <path d="M366.11,279.21 L353.554,279.21"/>
            <path d="M1028.86,224.799 L1047.27,182.29"/>
            <path d="M1065.71,224.799 L1028.86,224.799"/>
            <path d="M1047.27,182.29 L1065.71,224.799"/>
            <path d="M1089.28,279.21 L1070.22,235.262"/>
            <path d="M1102.76,279.21 L1089.28,279.21"/>
            <path d="M1048.34,153.645 L1102.76,279.21"/>
            <path d="M1046.25,153.645 L1048.34,153.645"/>
            <path d="M991.84,279.21 L1046.25,153.645"/>
            <path d="M1005.31,279.21 L991.84,279.21"/>
            <path d="M1024.34,235.262 L1005.31,279.21"/>
            <path d="M1070.22,235.262 L1024.34,235.262"/>
            <path d="M621.424,149.46 L623.288,189.222"/>
            <path d="M623.288,189.222 L632.019,189.222"/>
            <path d="M632.019,189.222 L633.981,149.46"/>
            <path d="M633.981,149.46 L621.424,149.46"/>
            <path d="M981.376,164.109 L954.17,164.109"/>
            <path d="M981.377,153.645 L981.376,164.109"/>
            <path d="M914.408,153.645 L981.377,153.645"/>
            <path d="M914.408,164.109 L914.408,153.645"/>
            <path d="M941.615,164.109 L914.408,164.109"/>
            <path d="M941.615,279.21 L941.615,164.109"/>
            <path d="M954.17,279.21 L941.615,279.21"/>
            <path d="M954.17,164.109 L954.17,279.21"/>
            <path d="M600.497,149.46 L587.941,149.46"/>
            <path d="M587.941,149.46 L589.804,189.222"/>
            <path d="M589.804,189.222 L598.634,189.222"/>
            <path d="M598.634,189.222 L600.497,149.46"/>
            <path d="M558.446,204.64 L559.474,202.701"/>
            <path d="M555.619,209.004 L558.446,204.64"/>
            <path d="M551.522,214.396 L555.619,209.004"/>
            <path d="M546.154,220.816 L551.522,214.396"/>
            <path d="M491.675,279.21 L546.154,220.816"/>
            <path d="M577.478,279.21 L491.675,279.21"/>
            <path d="M577.478,268.746 L577.478,279.21"/>
            <path d="M517.9,268.746 L577.478,268.746"/>
            <path d="M550.239,234.314 L517.9,268.746"/>
            <path d="M557.055,226.763 L550.239,234.314"/>
            <path d="M562.66,220.037 L557.055,226.763"/>
            <path d="M567.053,214.134 L562.66,220.037"/>
            <path d="M574.097,199.387 L567.053,214.134"/>
            <path d="M574.66,196.867 L574.097,199.387"/>
            <path d="M575.063,194.306 L574.66,196.867"/>
            <path d="M575.304,191.703 L575.063,194.306"/>
            <path d="M575.385,189.058 L575.304,191.703"/>
            <path d="M572.74,174.887 L575.385,189.058"/>
            <path d="M571.252,171.658 L572.74,174.887"/>
            <path d="M569.434,168.553 L571.252,171.658"/>
            <path d="M564.806,162.719 L569.434,168.553"/>
            <path d="M562.06,160.102 L564.806,162.719"/>
            <path d="M559.11,157.834 L562.06,160.102"/>
            <path d="M555.955,155.915 L559.11,157.834"/>
            <path d="M552.597,154.344 L555.955,155.915"/>
            <path d="M549.035,153.123 L552.597,154.344"/>
            <path d="M541.3,151.727 L549.035,153.123"/>
            <path d="M537.127,151.553 L541.3,151.727"/>
            <path d="M532.896,151.727 L537.127,151.553"/>
            <path d="M528.839,152.251 L532.896,151.727"/>
            <path d="M524.953,153.125 L528.839,152.251"/>
            <path d="M517.697,155.921 L524.953,153.125"/>
            <path d="M505.343,165.629 L517.697,155.921"/>
            <path d="M500.873,171.997 L505.343,165.629"/>
            <path d="M496.809,183.005 L500.873,171.997"/>
            <path d="M495.861,191.315 L496.809,183.005"/>
            <path d="M508.416,191.315 L495.861,191.315"/>
            <path d="M508.79,187.937 L508.416,191.315"/>
            <path d="M509.37,184.753 L508.79,187.937"/>
            <path d="M510.157,181.763 L509.37,184.753"/>
            <path d="M511.151,178.967 L510.157,181.763"/>
            <path d="M515.374,171.739 L511.151,178.967"/>
            <path d="M523.526,165.024 L515.374,171.739"/>
            <path d="M528.361,163.099 L523.526,165.024"/>
            <path d="M530.964,162.498 L528.361,163.099"/>
            <path d="M533.689,162.137 L530.964,162.498"/>
            <path d="M539.248,162.138 L533.689,162.137"/>
            <path d="M541.85,162.504 L539.248,162.138"/>
            <path d="M544.344,163.113 L541.85,162.504"/>
            <path d="M546.732,163.966 L544.344,163.113"/>
            <path d="M549.012,165.063 L546.732,163.966"/>
            <path d="M551.185,166.403 L549.012,165.063"/>
            <path d="M553.25,167.987 L551.185,166.403"/>
            <path d="M556.995,171.811 L553.25,167.987"/>
            <path d="M560.923,178.362 L556.995,171.811"/>
            <path d="M562.352,183.196 L560.923,178.362"/>
            <path d="M562.708,185.754 L562.352,183.196"/>
            <path d="M562.828,188.404 L562.708,185.754"/>
            <path d="M562.759,190.525 L562.828,188.404"/>
            <path d="M562.554,192.62 L562.759,190.525"/>
            <path d="M562.211,194.688 L562.554,192.62"/>
            <path d="M561.733,196.73 L562.211,194.688"/>
            <path d="M560.364,200.737 L561.733,196.73"/>
            <path d="M559.474,202.701 L560.364,200.737"/>
            <path d="M906.037,216.428 L845.348,216.428"/>
            <path d="M906.037,205.964 L906.037,216.428"/>
            <path d="M845.348,205.964 L906.037,205.964"/>
            <path d="M845.348,164.109 L845.348,205.964"/>
            <path d="M906.037,164.109 L845.348,164.109"/>
            <path d="M906.037,153.645 L906.037,164.109"/>
            <path d="M832.791,153.645 L906.037,153.645"/>
            <path d="M832.791,279.21 L832.791,153.645"/>
            <path d="M906.037,279.21 L832.791,279.21"/>
            <path d="M906.037,268.746 L906.037,279.21"/>
            <path d="M845.348,268.746 L906.037,268.746"/>
            <path d="M845.348,216.428 L845.348,268.746"/>
            <path d="M1178.09,268.746 L1228.32,268.746"/>
            <path d="M1178.09,153.645 L1178.09,268.746"/>
            <path d="M1165.54,153.645 L1178.09,153.645"/>
            <path d="M1165.54,279.21 L1165.54,153.645"/>
            <path d="M1228.32,279.21 L1165.54,279.21"/>
            <path d="M1228.32,268.746 L1228.32,279.21"/>
            <path d="M1294.86,239.188 L1292.9,236.047"/>
            <path d="M1297.1,245.581 L1294.86,239.188"/>
            <path d="M1297.38,248.832 L1297.1,245.581"/>
            <path d="M1296.61,254.399 L1297.38,248.832"/>
            <path d="M1292.6,262.078 L1296.61,254.399"/>
            <path d="M1288.13,266.149 L1292.6,262.078"/>
            <path d="M1279.32,270.079 L1288.13,266.149"/>
            <path d="M1272.86,270.839 L1279.32,270.079"/>
            <path d="M1265.27,269.531 L1272.86,270.839"/>
            <path d="M1258.16,265.607 L1265.27,269.531"/>
            <path d="M1245.32,249.911 L1258.16,265.607"/>
            <path d="M1234.6,256.353 L1245.32,249.911"/>
            <path d="M1238.71,262.606 L1234.6,256.353"/>
            <path d="M1240.84,265.37 L1238.71,262.606"/>
            <path d="M1243.02,267.892 L1240.84,265.37"/>
            <path d="M1245.24,270.172 L1243.02,267.892"/>
            <path d="M1247.51,272.211 L1245.24,270.172"/>
            <path d="M1249.83,274.008 L1247.51,272.211"/>
            <path d="M1252.19,275.564 L1249.83,274.008"/>
            <path d="M1262.28,279.868 L1252.19,275.564"/>
            <path d="M1267.73,280.944 L1262.28,279.868"/>
            <path d="M1273.45,281.303 L1267.73,280.944"/>
            <path d="M1280.78,280.677 L1273.45,281.303"/>
            <path d="M1290.69,277.394 L1280.78,280.677"/>
            <path d="M1296.58,273.642 L1290.69,277.394"/>
            <path d="M1305.79,263.296 L1296.58,273.642"/>
            <path d="M1308.44,257.41 L1305.79,263.296"/>
            <path d="M1309.94,247.753 L1308.44,257.41"/>
            <path d="M1309.84,245.4 L1309.94,247.753"/>
            <path d="M1309.54,243.05 L1309.84,245.4"/>
            <path d="M1308.37,238.356 L1309.54,243.05"/>
            <path d="M1307.48,236.014 L1308.37,238.356"/>
            <path d="M1306.41,233.673 L1307.48,236.014"/>
            <path d="M1303.66,229 L1306.41,233.673"/>
            <path d="M1263.73,194.912 L1303.66,229"/>
            <path d="M1257.29,186.377 L1263.73,194.912"/>
            <path d="M1255.97,182.396 L1257.29,186.377"/>
            <path d="M1255.6,176.61 L1255.97,182.396"/>
            <path d="M1255.84,174.989 L1255.6,176.61"/>
            <path d="M1256.23,173.436 L1255.84,174.989"/>
            <path d="M1256.78,171.953 L1256.23,173.436"/>
            <path d="M1257.49,170.538 L1256.78,171.953"/>
            <path d="M1259.38,167.916 L1257.49,170.538"/>
            <path d="M1263.26,164.656 L1259.38,167.916"/>
            <path d="M1266.32,163.189 L1263.26,164.656"/>
            <path d="M1267.99,162.676 L1266.32,163.189"/>
            <path d="M1269.75,162.309 L1267.99,162.676"/>
            <path d="M1271.6,162.09 L1269.75,162.309"/>
            <path d="M1273.54,162.016 L1271.6,162.09"/>
            <path d="M1279.46,162.727 L1273.54,162.016"/>
            <path d="M1287.67,166.666 L1279.46,162.727"/>
            <path d="M1297.54,176.665 L1287.67,166.666"/>
            <path d="M1307.84,168.85 L1297.54,176.665"/>
            <path d="M1291.12,155.248 L1307.84,168.85"/>
            <path d="M1282.92,152.476 L1291.12,155.248"/>
            <path d="M1274.13,151.553 L1282.92,152.476"/>
            <path d="M1265.91,152.489 L1274.13,151.553"/>
            <path d="M1258.3,155.297 L1265.91,152.489"/>
            <path d="M1254.86,157.342 L1258.3,155.297"/>
            <path d="M1251.83,159.736 L1254.86,157.342"/>
            <path d="M1249.21,162.476 L1251.83,159.736"/>
            <path d="M1243.97,172.435 L1249.21,162.476"/>
            <path d="M1242.97,180.001 L1243.97,172.435"/>
            <path d="M1243.4,184.899 L1242.97,180.001"/>
            <path d="M1243.95,187.283 L1243.4,184.899"/>
            <path d="M1244.71,189.622 L1243.95,187.283"/>
            <path d="M1245.69,191.918 L1244.71,189.622"/>
            <path d="M1252.72,201.617 L1245.69,191.918"/>
            <path d="M1289.19,231.629 L1252.72,201.617"/>
            <path d="M1291.2,233.892 L1289.19,231.629"/>
            <path d="M1292.9,236.047 L1291.2,233.892"/>
            <path d="M791.661,196.768 L788.338,189.442"/>
            <path d="M792.908,200.687 L791.661,196.768"/>
            <path d="M793.876,204.776 L792.908,200.687"/>
            <path d="M794.984,213.463 L793.876,204.776"/>
            <path d="M793.973,230.68 L794.984,213.463"/>
            <path d="M788.864,245.101 L793.973,230.68"/>
            <path d="M784.809,251.248 L788.864,245.101"/>
            <path d="M779.962,256.48 L784.809,251.248"/>
            <path d="M777.252,258.74 L779.962,256.48"/>
            <path d="M774.353,260.763 L777.252,258.74"/>
            <path d="M771.264,262.55 L774.353,260.763"/>
            <path d="M764.516,265.411 L771.264,262.55"/>
            <path d="M761.722,266.192 L764.516,265.411"/>
            <path d="M758.428,266.87 L761.722,266.192"/>
            <path d="M754.631,267.443 L758.428,266.87"/>
            <path d="M750.333,267.912 L754.631,267.443"/>
            <path d="M745.533,268.277 L750.333,267.912"/>
            <path d="M740.23,268.538 L745.533,268.277"/>
            <path d="M713.506,268.746 L740.23,268.538"/>
            <path d="M713.506,164.109 L713.506,268.746"/>
            <path d="M761.574,167.804 L713.506,164.109"/>
            <path d="M778.635,177.24 L761.574,167.804"/>
            <path d="M781.395,179.91 L778.635,177.24"/>
            <path d="M783.937,182.841 L781.395,179.91"/>
            <path d="M786.261,186.034 L783.937,182.841"/>
            <path d="M788.338,189.442 L786.261,186.034"/>
            <path d="M766.746,276.54 L700.949,279.21"/>
            <path d="M774.635,273.977 L766.746,276.54"/>
            <path d="M778.086,272.376 L774.635,273.977"/>
            <path d="M784.351,268.49 L778.086,272.376"/>
            <path d="M787.253,266.195 L784.351,268.49"/>
            <path d="M790.001,263.665 L787.253,266.195"/>
            <path d="M795.035,257.903 L790.001,263.665"/>
            <path d="M801.383,247.548 L795.035,257.903"/>
            <path d="M803.053,243.751 L801.383,247.548"/>
            <path d="M804.466,239.812 L803.053,243.751"/>
            <path d="M806.522,231.511 L804.466,239.812"/>
            <path d="M807.517,212.631 L806.522,231.511"/>
            <path d="M806.218,202.466 L807.517,212.631"/>
            <path d="M805.083,197.666 L806.218,202.466"/>
            <path d="M803.623,193.056 L805.083,197.666"/>
            <path d="M794.576,176.559 L803.623,193.056"/>
            <path d="M791.602,173.05 L794.576,176.559"/>
            <path d="M788.377,169.835 L791.602,173.05"/>
            <path d="M784.899,166.913 L788.377,169.835"/>
            <path d="M781.171,164.284 L784.899,166.913"/>
            <path d="M765.023,157.1 L781.171,164.284"/>
            <path d="M756.662,155.408 L765.023,157.1"/>
            <path d="M746.344,154.28 L756.662,155.408"/>
            <path d="M700.949,153.645 L746.344,154.28"/>
            <path d="M700.949,279.21 L700.949,153.645"/>
            <path d="M3059.45,164.109 L3086.65,164.109"/>
            <path d="M3059.45,279.21 L3059.45,164.109"/>
            <path d="M3046.89,279.21 L3059.45,279.21"/>
            <path d="M3046.89,164.109 L3046.89,279.21"/>
            <path d="M3019.69,164.109 L3046.89,164.109"/>
            <path d="M3019.69,153.645 L3019.69,164.109"/>
            <path d="M3086.65,153.645 L3019.69,153.645"/>
            <path d="M3086.65,164.109 L3086.65,153.645"/>
            <path d="M3011.31,268.746 L2950.63,268.746"/>
            <path d="M3011.31,279.21 L3011.31,268.746"/>
            <path d="M2938.07,279.21 L3011.31,279.21"/>
            <path d="M2938.07,153.645 L2938.07,279.21"/>
            <path d="M3011.31,153.645 L2938.07,153.645"/>
            <path d="M3011.31,164.109 L3011.31,153.645"/>
            <path d="M2950.62,164.109 L3011.31,164.109"/>
            <path d="M2950.62,205.964 L2950.62,164.109"/>
            <path d="M3011.31,205.964 L2950.62,205.964"/>
            <path d="M3011.31,216.428 L3011.31,205.964"/>
            <path d="M2950.63,216.428 L3011.31,216.428"/>
            <path d="M2950.63,268.746 L2950.63,216.428"/>
            <path d="M3241.52,279.21 L3228.96,279.21"/>
            <path d="M3228.96,279.21 L3228.96,153.645"/>
            <path d="M3228.96,153.645 L3241.52,153.645"/>
            <path d="M3241.52,153.645 L3241.52,279.21"/>
            <path d="M2726.7,149.46 L2739.26,149.46"/>
            <path d="M2739.26,149.46 L2737.3,189.222"/>
            <path d="M2737.3,189.222 L2728.57,189.222"/>
            <path d="M2728.57,189.222 L2726.7,149.46"/>
            <path d="M2693.22,149.46 L2705.77,149.46"/>
            <path d="M2705.77,149.46 L2703.91,189.222"/>
            <path d="M2703.91,189.222 L2695.08,189.222"/>
            <path d="M2695.08,189.222 L2693.22,149.46"/>
            <path d="M2655.55,239.448 L2655.55,187.129"/>
            <path d="M2619.09,239.448 L2655.55,239.448"/>
            <path d="M2655.55,187.129 L2619.09,239.448"/>
            <path d="M2668.1,239.448 L2668.1,151.553"/>
            <path d="M2682.75,239.448 L2668.1,239.448"/>
            <path d="M2682.75,249.911 L2682.75,239.448"/>
            <path d="M2668.1,249.911 L2682.75,249.911"/>
            <path d="M2668.1,279.21 L2668.1,249.911"/>
            <path d="M2655.55,279.21 L2668.1,279.21"/>
            <path d="M2655.55,249.911 L2655.55,279.21"/>
            <path d="M2596.95,249.911 L2655.55,249.911"/>
            <path d="M2665.55,151.553 L2596.95,249.911"/>
            <path d="M2668.1,151.553 L2665.55,151.553"/>
            <path d="M2584.39,149.46 L2571.22,149.46"/>
            <path d="M2532.7,295.952 L2584.39,149.46"/>
            <path d="M2519.52,295.952 L2532.7,295.952"/>
            <path d="M2571.22,149.46 L2519.52,295.952"/>
            <path d="M3376.88,162.09 L3375.03,162.309"/>
            <path d="M3375.03,162.309 L3373.27,162.676"/>
            <path d="M3373.27,162.676 L3371.6,163.189"/>
            <path d="M3371.6,163.189 L3368.54,164.656"/>
            <path d="M3368.54,164.656 L3364.66,167.916"/>
            <path d="M3364.66,167.916 L3363.63,169.193"/>
            <path d="M3363.63,169.193 L3362.77,170.538"/>
            <path d="M3362.77,170.538 L3362.06,171.953"/>
            <path d="M3362.06,171.953 L3361.12,174.989"/>
            <path d="M3361.12,174.989 L3361.24,182.396"/>
            <path d="M3361.24,182.396 L3362.57,186.377"/>
            <path d="M3362.57,186.377 L3369.01,194.912"/>
            <path d="M3369.01,194.912 L3400.01,219.015"/>
            <path d="M3400.01,219.015 L3405.13,224.17"/>
            <path d="M3405.13,224.17 L3407.2,226.626"/>
            <path d="M3407.2,226.626 L3408.93,229"/>
            <path d="M3408.93,229 L3411.68,233.673"/>
            <path d="M3411.68,233.673 L3412.76,236.014"/>
            <path d="M3412.76,236.014 L3413.64,238.356"/>
            <path d="M3413.64,238.356 L3414.33,240.702"/>
            <path d="M3414.33,240.702 L3414.82,243.05"/>
            <path d="M3414.82,243.05 L3415.12,245.4"/>
            <path d="M3415.12,245.4 L3415.21,247.753"/>
            <path d="M3415.21,247.753 L3413.72,257.41"/>
            <path d="M3413.72,257.41 L3411.06,263.296"/>
            <path d="M3411.06,263.296 L3409.24,266.073"/>
            <path d="M3409.24,266.073 L3407.08,268.74"/>
            <path d="M3407.08,268.74 L3404.59,271.297"/>
            <path d="M3404.59,271.297 L3401.86,273.642"/>
            <path d="M3401.86,273.642 L3395.97,277.394"/>
            <path d="M3395.97,277.394 L3386.05,280.677"/>
            <path d="M3386.05,280.677 L3378.72,281.303"/>
            <path d="M3378.72,281.303 L3373,280.944"/>
            <path d="M3373,280.944 L3367.55,279.868"/>
            <path d="M3367.55,279.868 L3364.93,279.061"/>
            <path d="M3364.93,279.061 L3362.38,278.075"/>
            <path d="M3362.38,278.075 L3359.89,276.909"/>
            <path d="M3359.89,276.909 L3357.47,275.564"/>
            <path d="M3357.47,275.564 L3348.29,267.892"/>
            <path d="M3348.29,267.892 L3339.87,256.353"/>
            <path d="M3339.87,256.353 L3350.6,249.911"/>
            <path d="M3350.6,249.911 L3363.43,265.607"/>
            <path d="M3363.43,265.607 L3370.55,269.531"/>
            <path d="M3370.55,269.531 L3378.13,270.839"/>
            <path d="M3378.13,270.839 L3384.6,270.079"/>
            <path d="M3384.6,270.079 L3387.68,269.128"/>
            <path d="M3387.68,269.128 L3390.66,267.798"/>
            <path d="M3390.66,267.798 L3393.41,266.149"/>
            <path d="M3393.41,266.149 L3397.87,262.078"/>
            <path d="M3397.87,262.078 L3399.58,259.656"/>
            <path d="M3399.58,259.656 L3400.93,257.066"/>
            <path d="M3400.93,257.066 L3401.89,254.399"/>
            <path d="M3401.89,254.399 L3402.66,248.832"/>
            <path d="M3402.66,248.832 L3402.38,245.581"/>
            <path d="M3402.38,245.581 L3400.14,239.188"/>
            <path d="M3400.14,239.188 L3394.47,231.629"/>
            <path d="M3394.47,231.629 L3389.48,226.777"/>
            <path d="M3389.48,226.777 L3362.34,205.514"/>
            <path d="M3362.34,205.514 L3358,201.617"/>
            <path d="M3358,201.617 L3350.97,191.918"/>
            <path d="M3350.97,191.918 L3349.99,189.622"/>
            <path d="M3349.99,189.622 L3349.23,187.283"/>
            <path d="M3349.23,187.283 L3348.68,184.899"/>
            <path d="M3348.68,184.899 L3348.24,180.001"/>
            <path d="M3348.24,180.001 L3348.5,176.131"/>
            <path d="M3348.5,176.131 L3349.25,172.435"/>
            <path d="M3349.25,172.435 L3349.82,170.652"/>
            <path d="M3349.82,170.652 L3350.51,168.913"/>
            <path d="M3350.51,168.913 L3355.74,161.062"/>
            <path d="M3355.74,161.062 L3363.58,155.297"/>
            <path d="M3363.58,155.297 L3371.18,152.489"/>
            <path d="M3371.18,152.489 L3379.41,151.553"/>
            <path d="M3379.41,151.553 L3388.2,152.476"/>
            <path d="M3388.2,152.476 L3396.4,155.248"/>
            <path d="M3396.4,155.248 L3413.12,168.85"/>
            <path d="M3413.12,168.85 L3402.82,176.666"/>
            <path d="M3402.82,176.666 L3392.95,166.666"/>
            <path d="M3392.95,166.666 L3390.2,164.861"/>
            <path d="M3390.2,164.861 L3387.52,163.617"/>
            <path d="M3387.52,163.617 L3384.74,162.727"/>
            <path d="M3384.74,162.727 L3378.82,162.016"/>
            <path d="M3378.82,162.016 L3376.88,162.09"/>
            <path d="M3333.6,268.746 L3283.37,268.746"/>
            <path d="M3333.6,279.21 L3333.6,268.746"/>
            <path d="M3270.81,279.21 L3333.6,279.21"/>
            <path d="M3270.81,153.645 L3270.81,279.21"/>
            <path d="M3283.37,153.645 L3270.81,153.645"/>
            <path d="M3283.37,268.746 L3283.37,153.645"/>
            <path d="M3134.13,224.799 L3170.98,224.799"/>
            <path d="M3152.54,182.29 L3134.13,224.799"/>
            <path d="M3170.98,224.799 L3152.54,182.29"/>
            <path d="M3208.03,279.21 L3153.62,153.645"/>
            <path d="M3194.56,279.21 L3208.03,279.21"/>
            <path d="M3175.5,235.262 L3194.56,279.21"/>
            <path d="M3129.62,235.262 L3175.5,235.262"/>
            <path d="M3110.59,279.21 L3129.62,235.262"/>
            <path d="M3097.12,279.21 L3110.59,279.21"/>
            <path d="M3151.53,153.645 L3097.12,279.21"/>
            <path d="M3153.62,153.645 L3151.53,153.645"/>
            <path d="M2496.72,197.348 L2498.45,194.113"/>
            <path d="M2494.49,200.375 L2496.72,197.348"/>
            <path d="M2491.76,203.197 L2494.49,200.375"/>
            <path d="M2484.83,208.22 L2491.76,203.197"/>
            <path d="M2486.95,209.181 L2484.83,208.22"/>
            <path d="M2488.98,210.247 L2486.95,209.181"/>
            <path d="M2490.91,211.42 L2488.98,210.247"/>
            <path d="M2492.74,212.7 L2490.91,211.42"/>
            <path d="M2494.47,214.085 L2492.74,212.7"/>
            <path d="M2496.11,215.577 L2494.47,214.085"/>
            <path d="M2499.08,218.88 L2496.11,215.577"/>
            <path d="M2502.53,223.981 L2499.08,218.88"/>
            <path d="M2503.88,226.642 L2502.53,223.981"/>
            <path d="M2504.99,229.376 L2503.88,226.642"/>
            <path d="M2506.96,241.05 L2504.99,229.376"/>
            <path d="M2504.71,253.875 L2506.96,241.05"/>
            <path d="M2499.7,263.54 L2504.71,253.875"/>
            <path d="M2494.41,269.719 L2499.7,263.54"/>
            <path d="M2485.51,276.054 L2494.41,269.719"/>
            <path d="M2474.98,279.99 L2485.51,276.054"/>
            <path d="M2463.28,281.303 L2474.98,279.99"/>
            <path d="M2448.08,279.042 L2463.28,281.303"/>
            <path d="M2444.71,277.771 L2448.08,279.042"/>
            <path d="M2441.51,276.217 L2444.71,277.771"/>
            <path d="M2438.48,274.38 L2441.51,276.217"/>
            <path d="M2435.63,272.261 L2438.48,274.38"/>
            <path d="M2426.48,261.107 L2435.63,272.261"/>
            <path d="M2424.79,257.658 L2426.48,261.107"/>
            <path d="M2423.34,253.945 L2424.79,257.658"/>
            <path d="M2421.16,245.726 L2423.34,253.945"/>
            <path d="M2433.72,245.726 L2421.16,245.726"/>
            <path d="M2437.75,256.468 L2433.72,245.726"/>
            <path d="M2440.31,260.551 L2437.75,256.468"/>
            <path d="M2441.73,262.271 L2440.31,260.551"/>
            <path d="M2443.23,263.776 L2441.73,262.271"/>
            <path d="M2447.48,266.866 L2443.23,263.776"/>
            <path d="M2454.88,269.846 L2447.48,266.866"/>
            <path d="M2466.91,270.707 L2454.88,269.846"/>
            <path d="M2473.21,269.65 L2466.91,270.707"/>
            <path d="M2481.36,266.084 L2473.21,269.65"/>
            <path d="M2483.73,264.367 L2481.36,266.084"/>
            <path d="M2485.94,262.386 L2483.73,264.367"/>
            <path d="M2487.92,260.228 L2485.94,262.386"/>
            <path d="M2489.64,257.979 L2487.92,260.228"/>
            <path d="M2492.29,253.21 L2489.64,257.979"/>
            <path d="M2494.41,242.587 L2492.29,253.21"/>
            <path d="M2493.35,235.27 L2494.41,242.587"/>
            <path d="M2492.75,233.515 L2493.35,235.27"/>
            <path d="M2492.02,231.79 L2492.75,233.515"/>
            <path d="M2490.17,228.428 L2492.02,231.79"/>
            <path d="M2489.07,226.828 L2490.17,228.428"/>
            <path d="M2487.87,225.329 L2489.07,226.828"/>
            <path d="M2485.21,222.636 L2487.87,225.329"/>
            <path d="M2478.81,218.471 L2485.21,222.636"/>
            <path d="M2456.74,214.335 L2478.81,218.471"/>
            <path d="M2456.74,203.871 L2456.74,214.335"/>
            <path d="M2465.6,203.099 L2456.74,203.871"/>
            <path d="M2469.72,202.133 L2465.6,203.099"/>
            <path d="M2473.63,200.781 L2469.72,202.133"/>
            <path d="M2480.19,197.27 L2473.63,200.781"/>
            <path d="M2482.69,195.199 L2480.19,197.27"/>
            <path d="M2483.75,194.084 L2482.69,195.199"/>
            <path d="M2484.68,192.917 L2483.75,194.084"/>
            <path d="M2487.27,187.93 L2484.68,192.917"/>
            <path d="M2488.13,182.519 L2487.27,187.93"/>
            <path d="M2487.15,176.582 L2488.13,182.519"/>
            <path d="M2485.4,172.977 L2487.15,176.582"/>
            <path d="M2479.34,166.673 L2485.4,172.977"/>
            <path d="M2470.98,162.872 L2479.34,166.673"/>
            <path d="M2468.61,162.396 L2470.98,162.872"/>
            <path d="M2466.11,162.111 L2468.61,162.396"/>
            <path d="M2461.38,162.091 L2466.11,162.111"/>
            <path d="M2457.36,162.685 L2461.38,162.091"/>
            <path d="M2455.46,163.206 L2457.36,162.685"/>
            <path d="M2453.63,163.875 L2455.46,163.206"/>
            <path d="M2451.87,164.692 L2453.63,163.875"/>
            <path d="M2448.58,166.774 L2451.87,164.692"/>
            <path d="M2442.76,173.195 L2448.58,166.774"/>
            <path d="M2441.46,175.32 L2442.76,173.195"/>
            <path d="M2440.21,177.654 L2441.46,175.32"/>
            <path d="M2437.9,182.944 L2440.21,177.654"/>
            <path d="M2425.35,182.944 L2437.9,182.944"/>
            <path d="M2426.36,179.276 L2425.35,182.944"/>
            <path d="M2427.57,175.826 L2426.36,179.276"/>
            <path d="M2429,172.593 L2427.57,175.826"/>
            <path d="M2430.63,169.578 L2429,172.593"/>
            <path d="M2439.21,159.695 L2430.63,169.578"/>
            <path d="M2444.56,156.132 L2439.21,159.695"/>
            <path d="M2447.41,154.733 L2444.56,156.132"/>
            <path d="M2450.37,153.588 L2447.41,154.733"/>
            <path d="M2463.37,151.553 L2450.37,153.588"/>
            <path d="M2465.89,151.621 L2463.37,151.553"/>
            <path d="M2468.36,151.825 L2465.89,151.621"/>
            <path d="M2470.79,152.166 L2468.36,151.825"/>
            <path d="M2473.17,152.644 L2470.79,152.166"/>
            <path d="M2477.82,154.008 L2473.17,152.644"/>
            <path d="M2480.08,154.895 L2477.82,154.008"/>
            <path d="M2484.42,157.057 L2480.08,154.895"/>
            <path d="M2488.32,159.619 L2484.42,157.057"/>
            <path d="M2490.08,161.044 L2488.32,159.619"/>
            <path d="M2491.71,162.562 L2490.08,161.044"/>
            <path d="M2493.23,164.176 L2491.71,162.562"/>
            <path d="M2494.61,165.885 L2493.23,164.176"/>
            <path d="M2495.88,167.69 L2494.61,165.885"/>
            <path d="M2497.01,169.552 L2495.88,167.69"/>
            <path d="M2497.98,171.435 L2497.01,169.552"/>
            <path d="M2500.01,177.209 L2497.98,171.435"/>
            <path d="M2500.38,179.176 L2500.01,177.209"/>
            <path d="M2500.61,181.164 L2500.38,179.176"/>
            <path d="M2500.69,183.173 L2500.61,181.164"/>
            <path d="M2500.44,187.026 L2500.69,183.173"/>
            <path d="M2498.45,194.113 L2500.44,187.026"/>
            <path d="M2876.54,262.55 L2879.63,260.763"/>
            <path d="M2869.79,265.411 L2876.54,262.55"/>
            <path d="M2867,266.192 L2869.79,265.411"/>
            <path d="M2863.7,266.87 L2867,266.192"/>
            <path d="M2859.91,267.443 L2863.7,266.87"/>
            <path d="M2855.61,267.912 L2859.91,267.443"/>
            <path d="M2850.81,268.277 L2855.61,267.912"/>
            <path d="M2845.51,268.538 L2850.81,268.277"/>
            <path d="M2818.78,268.746 L2845.51,268.538"/>
            <path d="M2818.78,164.109 L2818.78,268.746"/>
            <path d="M2840.4,164.34 L2818.78,164.109"/>
            <path d="M2851.14,165.033 L2840.4,164.34"/>
            <path d="M2859.95,166.187 L2851.14,165.033"/>
            <path d="M2863.64,166.938 L2859.95,166.187"/>
            <path d="M2866.85,167.804 L2863.64,166.938"/>
            <path d="M2883.91,177.24 L2866.85,167.804"/>
            <path d="M2889.21,182.841 L2883.91,177.24"/>
            <path d="M2891.54,186.034 L2889.21,182.841"/>
            <path d="M2893.61,189.442 L2891.54,186.034"/>
            <path d="M2896.94,196.768 L2893.61,189.442"/>
            <path d="M2898.18,200.687 L2896.94,196.768"/>
            <path d="M2899.15,204.776 L2898.18,200.687"/>
            <path d="M2900.26,213.463 L2899.15,204.776"/>
            <path d="M2900.4,218.062 L2900.26,213.463"/>
            <path d="M2900.27,222.44 L2900.4,218.062"/>
            <path d="M2899.89,226.646 L2900.27,222.44"/>
            <path d="M2899.25,230.68 L2899.89,226.646"/>
            <path d="M2894.14,245.101 L2899.25,230.68"/>
            <path d="M2890.08,251.248 L2894.14,245.101"/>
            <path d="M2885.24,256.48 L2890.08,251.248"/>
            <path d="M2882.53,258.74 L2885.24,256.48"/>
            <path d="M2879.63,260.763 L2882.53,258.74"/>
            <path d="M2907.11,188.635 L2905.01,184.403"/>
            <path d="M2908.9,193.056 L2907.11,188.635"/>
            <path d="M2910.36,197.666 L2908.9,193.056"/>
            <path d="M2911.5,202.466 L2910.36,197.666"/>
            <path d="M2912.31,207.454 L2911.5,202.466"/>
            <path d="M2912.79,212.631 L2912.31,207.454"/>
            <path d="M2912.95,217.997 L2912.79,212.631"/>
            <path d="M2912.83,222.643 L2912.95,217.997"/>
            <path d="M2912.44,227.148 L2912.83,222.643"/>
            <path d="M2908.33,243.751 L2912.44,227.148"/>
            <path d="M2900.31,257.903 L2908.33,243.751"/>
            <path d="M2895.28,263.665 L2900.31,257.903"/>
            <path d="M2892.53,266.195 L2895.28,263.665"/>
            <path d="M2889.63,268.49 L2892.53,266.195"/>
            <path d="M2886.57,270.55 L2889.63,268.49"/>
            <path d="M2883.36,272.376 L2886.57,270.55"/>
            <path d="M2872.02,276.54 L2883.36,272.376"/>
            <path d="M2806.22,279.21 L2872.02,276.54"/>
            <path d="M2806.22,153.645 L2806.22,279.21"/>
            <path d="M2870.3,157.1 L2806.22,153.645"/>
            <path d="M2878.23,159.907 L2870.3,157.1"/>
            <path d="M2882.47,161.949 L2878.23,159.907"/>
            <path d="M2886.45,164.284 L2882.47,161.949"/>
            <path d="M2893.65,169.835 L2886.45,164.284"/>
            <path d="M2896.88,173.05 L2893.65,169.835"/>
            <path d="M2899.85,176.559 L2896.88,173.05"/>
            <path d="M2902.57,180.36 L2899.85,176.559"/>
            <path d="M2905.01,184.403 L2902.57,180.36"/>
            <path d="M274.811,102.385 L-1820.69,102.385"/>
            <path d="M274.811,102.385 L274.811,4775.99"/>
            <path d="M-1820.69,4775.99 L-1820.69,102.385"/>
            <path d="M274.811,4775.99 L-1820.69,4775.99"/>
            <path d="M274.811,102.385 L274.811,4775.99"/>
            <path d="M-1820.69,102.385 L274.811,102.385"/>
            <path d="M-1820.69,4775.99 L-1820.69,102.385"/>
            <path d="M274.811,4775.99 L-1820.69,4775.99"/>
            <path d="M2370.31,102.385 L274.81,102.385"/>
            <path d="M2370.31,102.385 L2370.31,4775.99"/>
            <path d="M274.81,4775.99 L274.81,102.385"/>
            <path d="M2370.31,4775.99 L274.81,4775.99"/>
            <path d="M2370.31,102.385 L2370.31,4775.99"/>
            <path d="M274.81,102.385 L2370.31,102.385"/>
            <path d="M274.81,4775.99 L274.81,102.385"/>
            <path d="M2370.31,4775.99 L274.81,4775.99"/>
            <path d="M4465.81,102.385 L2370.31,102.385"/>
            <path d="M4465.81,102.385 L4465.81,4775.98"/>
            <path d="M2370.31,4775.98 L2370.31,102.385"/>
            <path d="M4465.81,4775.98 L2370.31,4775.98"/>
            <path d="M4465.81,102.385 L4465.81,4775.98"/>
            <path d="M2370.31,102.385 L4465.81,102.385"/>
            <path d="M2370.31,4775.98 L2370.31,102.385"/>
            <path d="M4465.81,4775.98 L2370.31,4775.98"/>
        </g>
    </g>
</svg>