<?xml version="1.0" encoding="utf-8" ?>
<svg xmlns="http://www.w3.org/2000/svg" xmlns:ev="http://www.w3.org/2001/xml-events" xmlns:ifc="http://www.ifcopenshell.org/ns" xmlns:xlink="http://www.w3.org/1999/xlink" baseProfile="full" data-scale="1/4&quot;=1'-0&quot;" height="314.00833944479626mm" id="root" version="1.1" viewBox="0 0 408.33334128061927 314.00833944479626" width="408.33334128061927mm">
  <defs/>
</svg>
