<?xml version="1.0" encoding="utf-8" ?>
<svg xmlns="http://www.w3.org/2000/svg" xmlns:ev="http://www.w3.org/2001/xml-events" xmlns:ifc="http://www.ifcopenshell.org/ns" xmlns:xlink="http://www.w3.org/1999/xlink" baseProfile="full" data-scale="1/8&quot;=1'-0&quot;" height="122.40000343322754mm" id="root" version="1.1" viewBox="0 0 283.33334128061927 122.40000343322754" width="283.33334128061927mm">
  <defs/>
  <path class="GlobalId-30Uglw0l59P8F$xw1YV2YU IfcAnnotation PredefinedType-SECTIONLEVEL" d="M 355.96307373046875 120.48976135253906 L -164.87025451660156 120.48976135253906"/>
  <text dominant-baseline="baseline" style="font-size: 0;" text-anchor="start" transform="translate(355.96307373046875, 116.98976135253906) rotate(0.0)">
    <tspan class="SECTIONLEVEL" dy="-1em" x="0" y="0">My Storey</tspan>
    <tspan class="SECTIONLEVEL" dy="0em" x="0" y="0">RL -0&quot;</tspan>
  </text>
</svg>
