<?xml version="1.0" encoding="utf-8" ?>
<svg xmlns="http://www.w3.org/2000/svg" xmlns:ev="http://www.w3.org/2001/xml-events" xmlns:ifc="http://www.ifcopenshell.org/ns" xmlns:xlink="http://www.w3.org/1999/xlink" baseProfile="full" data-scale="1/4&quot;=1'-0&quot;" height="554.8606339622946mm" id="root" version="1.1" viewBox="0 0 898.3457883199055 554.8606339622946" width="898.3457883199055mm">
  <defs/>
  <image height="554.8606339622946" width="898.3457883199055" xlink:href="OPTION 1-underlay.png"/>
</svg>
