<?xml version="1.0" encoding="utf-8" ?>
<svg xmlns="http://www.w3.org/2000/svg" xmlns:ev="http://www.w3.org/2001/xml-events" xmlns:ifc="http://www.ifcopenshell.org/ns" xmlns:xlink="http://www.w3.org/1999/xlink" baseProfile="full" data-scale="3&quot;=1'-0&quot;" height="225.00061988830566mm" id="root" version="1.1" viewBox="0 0 225.00061988830566 225.00061988830566" width="225.00061988830566mm">
  <defs/>
  <path class="GlobalId-3YrNPJ2zb4y9NBqKih5Vur IfcAnnotation PredefinedType-SECTIONLEVEL" d="M -1383.9215087890625 144.2503662109375 L -1608.9276123046875 144.2503662109375"/>
  <text dominant-baseline="baseline" style="font-size: 0;" text-anchor="start" transform="translate(-1383.9215087890625, 140.7503662109375) rotate(0.0)">
    <tspan class="SECTIONLEVEL" dy="-1em" x="0" y="0">My Storey</tspan>
    <tspan class="SECTIONLEVEL" dy="0em" x="0" y="0">RL +0&quot;</tspan>
  </text>
  <path class="GlobalId-0HsXpD2pX7MBkLM8WrM7NY IfcAnnotation PredefinedType-TEXTLEADER" d="M 85.41595935821533 92.90159679949284 L 77.92389392852783 92.90159679949284 L 54.92889881134033 109.9366710986942"/>
  <text dominant-baseline="middle" style="font-size: 0;" text-anchor="start" transform="translate(85.41596221923828, 92.90159606933594) rotate(-0.0)">
    <tspan class="GlobalId-0HsXpD2pX7MBkLM8WrM7NY IfcAnnotation PredefinedType-TEXTLEADER" dy="0em" x="0" y="0">3/4/&quot; USG SHEETROCK BRAND ULTRACODE CORE PANEL, JOINTS FINISHED</tspan>
  </text>
  <path class="GlobalId-1pyn$52TDFVgnDLthge70y IfcAnnotation PredefinedType-TEXTLEADER" d="M 85.41595935821533 104.46447692811489 L 77.92389392852783 104.46447692811489 L 57.43134021759033 121.4995514601469"/>
  <text dominant-baseline="middle" style="font-size: 0;" text-anchor="start" transform="translate(85.41596221923828, 104.4644775390625) rotate(-0.0)">
    <tspan class="GlobalId-1pyn$52TDFVgnDLthge70y IfcAnnotation PredefinedType-TEXTLEADER" dy="0em" x="0" y="0">WALL BASE AS SCHEDULED</tspan>
  </text>
  <path class="GlobalId-1DPBfE2vrDuuxnzp$KeT2W IfcAnnotation PredefinedType-TEXTLEADER" d="M 85.41595935821533 126.84828788042068 L 77.92389392852783 126.84828788042068 L 54.92889881134033 143.8833624124527"/>
  <text dominant-baseline="middle" style="font-size: 0;" text-anchor="start" transform="translate(85.41596221923828, 126.84828186035156) rotate(-0.0)">
    <tspan class="GlobalId-1DPBfE2vrDuuxnzp$KeT2W IfcAnnotation PredefinedType-TEXTLEADER" dy="0em" x="0" y="0">ACOUSTICAL SEALANT OR FIRE SEALANT, IF RATED WALL</tspan>
  </text>
  <path class="GlobalId-3e3qyVWB52NxgwpdPg_fc2 IfcAnnotation PredefinedType-TEXTLEADER fill-bg" d="M 85.41595935821533 152.613315731287 L 77.92389392852783 152.613315731287 L 46.49841785430908 144.011452794075"/>
  <text dominant-baseline="middle" filter="url(#fill-background)" style="font-size: 0;" text-anchor="start" transform="translate(85.41596221923828, 152.61331176757812) rotate(-0.0)">
    <tspan class="GlobalId-3e3qyVWB52NxgwpdPg_fc2 IfcAnnotation PredefinedType-TEXTLEADER fill-bg" dy="0em" x="0" y="0">METAL RUNNER CHANNEL; FASTEN @ 24&quot; O.C.</tspan>
  </text>
  <text dominant-baseline="middle" style="font-size: 0;" text-anchor="start" transform="translate(85.41596221923828, 152.61331176757812) rotate(-0.0)">
    <tspan class="GlobalId-3e3qyVWB52NxgwpdPg_fc2 IfcAnnotation PredefinedType-TEXTLEADER fill-bg" dy="0em" x="0" y="0">METAL RUNNER CHANNEL; FASTEN @ 24&quot; O.C.</tspan>
  </text>
  <path class="GlobalId-2Z1N_aZRXAy8U8LuHm5cKU IfcAnnotation PredefinedType-TEXTLEADER fill-bg" d="M 85.41595935821533 163.14367949962616 L 77.92389392852783 163.14367949962616 L 46.49841785430908 154.54181656241417"/>
  <text dominant-baseline="middle" filter="url(#fill-background)" style="font-size: 0;" text-anchor="start" transform="translate(85.41596221923828, 163.1436767578125) rotate(-0.0)">
    <tspan class="GlobalId-2Z1N_aZRXAy8U8LuHm5cKU IfcAnnotation PredefinedType-TEXTLEADER fill-bg" dy="0em" x="0" y="0">STRUCTURAL FLOOR</tspan>
  </text>
  <text dominant-baseline="middle" style="font-size: 0;" text-anchor="start" transform="translate(85.41596221923828, 163.1436767578125) rotate(-0.0)">
    <tspan class="GlobalId-2Z1N_aZRXAy8U8LuHm5cKU IfcAnnotation PredefinedType-TEXTLEADER fill-bg" dy="0em" x="0" y="0">STRUCTURAL FLOOR</tspan>
  </text>
  <path class="GlobalId-0dOQ4VKwXE$eT85SPbXzgj IfcAnnotation PredefinedType-TEXTLEADER" d="M 85.41595935821533 49.462176859378815 L 77.92389392852783 49.462176859378815 L 48.21503162384033 62.24402040243149"/>
  <text dominant-baseline="middle" style="font-size: 0;" text-anchor="start" transform="translate(85.41596221923828, 49.46217727661133) rotate(-0.0)">
    <tspan class="GlobalId-0dOQ4VKwXE$eT85SPbXzgj IfcAnnotation PredefinedType-TEXTLEADER" dy="0em" x="0" y="0">2X BLOCKING - LOCATED AT GRAB BARS, WALL HUNG CABINETS, ETC</tspan>
  </text>
  <path class="GlobalId-09DAZPPtX3V8KT0zh7gccc IfcAnnotation PredefinedType-TEXTLEADER" d="M 85.41595935821533 77.62384414672852 L 77.92389392852783 77.62384414672852 L 41.76819324493408 97.0765482634306"/>
  <text dominant-baseline="middle" style="font-size: 0;" text-anchor="start" transform="translate(85.41596221923828, 77.62384033203125) rotate(-0.0)">
    <tspan class="GlobalId-09DAZPPtX3V8KT0zh7gccc IfcAnnotation PredefinedType-TEXTLEADER" dy="0em" x="0" y="0">METAL STUD - 20 GA. - 24&quot; O.C.</tspan>
  </text>
  <path class="GlobalId-1JUS0JeX15VQdEF61GTTnv IfcAnnotation PredefinedType-TEXTLEADER" d="M 85.41595935821533 115.92050432227552 L 77.92389392852783 115.92050432227552 L 41.53931140899658 142.22743548452854"/>
  <text dominant-baseline="middle" style="font-size: 0;" text-anchor="start" transform="translate(85.41596221923828, 115.9205093383789) rotate(-0.0)">
    <tspan class="GlobalId-1JUS0JeX15VQdEF61GTTnv IfcAnnotation PredefinedType-TEXTLEADER" dy="0em" x="0" y="0">METAL STUD - 20 GA. - 24&quot; O.C.</tspan>
  </text>
</svg>
