<svg xmlns="http://www.w3.org/2000/svg" xmlns:xlink="http://www.w3.org/1999/xlink" xmlns:ifc="http://www.ifcopenshell.org/ns" width="225.001mm" height="225.001mm" viewBox="0 0 225.001 225.001">
    <defs>
        <marker id="arrowend" markerWidth="10" markerHeight="7" refX="10" refY="3.5" orient="auto">
          <polygon points="0 0, 10 3.5, 0 7"/>
        </marker>
        <marker id="arrowstart" markerWidth="10" markerHeight="7" refX="0" refY="3.5" orient="auto">
          <polygon points="10 0, 0 3.5, 10 7"/>
        </marker>
    </defs>
    <g ifc:name="Elevation W1 - PARTITION - BASE" class="section" ifc:plane="[[1.000000,0.000000,0.000000,0.000000],[0.000000,-0.000000,-1.000000,0.261700],[0.000000,1.000000,-0.000000,0.000000],[0.000000,0.000000,0.000000,1.000000]]" ifc:matrix3="[[250.000000,0.000000,-104713.335847],[0.000000,250.000000,148.605230],[0.000000,0.000000,1.000000]]">
        <path d="M88.3,147.8 L88.6,148.6 L91.0,148.6 L90.7,147.8 L91.0,147.0 L88.6,147.0 Z" class="IfcBuildingElementProxy material-ACOUSTICALSEALANT materialCategory-sealant surface"/><path d="M91.0,144.7 L91.2,145.90000000000003 L91.6,147.0 L92.29999999999998,147.9 L93.3,148.6 L93.7,147.9 L92.89999999999999,147.29999999999998 L92.29999999999998,146.6 L92.0,145.7 L91.8,144.7 L91.8,123.7 L91.7,123.4 L91.3,123.2 L91.0,123.2 Z" class="IfcBuildingElementProxy material-WALLBASEASSCHEDULED surface"/><path d="M87.1,138.6 L87.1,139.1 L87.1,147.0 L88.1,147.0 L88.6,147.0 L91.0,147.0 L91.0,145.2 L91.0,144.7 L91.0,123.2 L91.0,123.05000000000001 L91.0,122.7 L91.0,-461.8 L87.1,-461.8 L87.1,-456.2 Z" class="IfcBuildingElementProxy material-58GYPBDORCEMENTBACKERBOARDONWETWALL materialCategory-sand surface"/><path d="M66.4,139.1 L85.5,139.1 L85.5,-445.0 L66.4,-445.0 Z" class="IfcBuildingElementProxy material-BATTINSULATIONENTIRECAVITY materialCategory-InsulationBatt surface"/><path d="M66.4,139.1 L64.8,139.1 L64.8,147.2 L64.8,147.7 L64.8,148.6 L87.1,148.6 L87.1,147.5 L87.1,147.0 L87.1,139.1 L85.5,139.1 Z" class="IfcBuildingElementProxy material-2XWOODSILLTREATEDIFONCONCRETE surface"/><path d="M64.8,139.1 L66.4,139.1 L66.4,-445.0 L85.5,-445.0 L85.5,139.1 L87.1,139.1 L87.1,138.6 L87.1,-456.2 L64.8,-456.2 L64.8,138.6 Z" class="IfcBuildingElementProxy material-null surface"/><path d="M60.974999999999994,147.2 L61.2,147.8 L60.9,148.6 L63.3,148.6 L63.6,147.8 L63.37499999999999,147.2 Z" class="IfcBuildingElementProxy material-ACOUSTICALSEALANT materialCategory-sealant surface"/><path d="M60.9,122.7 L60.9,123.05 L60.9,123.2 L60.9,144.7 L60.9,145.2 L60.9,146.5 L60.9,147.0 L63.3,147.0 L63.37499999999999,147.2 L64.8,147.2 L64.8,139.1 L64.8,138.6 L64.8,-456.2 L64.8,-461.8 L60.9,-461.8 Z" class="IfcBuildingElementProxy material-58GYPBDORCEMENTBACKERBOARDONWETWALL materialCategory-sand surface"/><path d="M58.600000000000016,148.6 L58.6,148.6 L-76.8,148.6 L-76.8,186.7 L228.0,186.7 L228.0,148.6 L93.3,148.6 L91.5,148.6 L91.0,148.6 L88.6,148.6 L88.1,148.6 L87.6,148.6 L87.1,148.6 L64.8,148.6 L64.3,148.6 L63.8,148.6 L63.3,148.6 L60.9,148.6 L60.4,148.6 Z" class="IfcBuildingElementProxy material-concrete surface"/><path d="M58.20000000000001,147.9 L58.6,148.6 L58.600000000000016,148.6 L59.60000000000002,147.89999999999998 L60.3,147.0 L60.7,145.9 L60.9,144.7 L60.9,123.2 L60.6,123.2 L60.2,123.4 L60.1,123.7 L60.1,144.7 L59.9,145.7 L59.6,146.6 L59.00000000000003,147.29999999999998 Z" class="IfcBuildingElementProxy material-WALLBASEASSCHEDULED surface"/><g class="projection">
            <path d="M58.637,148.605 L58.2401,147.918"/>
            <path d="M59.5607,147.897 L58.637,148.605"/>
            <path d="M60.2695,146.973 L59.5607,147.897"/>
            <path d="M60.715,145.897 L60.2695,146.973"/>
            <path d="M60.867,144.743 L60.715,145.897"/>
            <path d="M60.867,123.205 L60.867,144.743"/>
            <path d="M60.5949,123.205 L60.867,123.205"/>
            <path d="M60.226,123.358 L60.5949,123.205"/>
            <path d="M60.0732,123.727 L60.226,123.358"/>
            <path d="M60.0732,144.743 L60.0732,123.727"/>
            <path d="M59.9483,145.692 L60.0732,144.743"/>
            <path d="M59.582,146.576 L59.9483,145.692"/>
            <path d="M58.9994,147.335 L59.582,146.576"/>
            <path d="M58.2401,147.918 L58.9994,147.335"/>
            <path d="M60.8723,147.018 L63.2535,147.018"/>
            <path d="M61.2211,147.812 L60.8723,147.018"/>
            <path d="M60.8723,148.605 L61.2211,147.812"/>
            <path d="M63.2535,148.605 L60.8723,148.605"/>
            <path d="M63.6023,147.812 L63.2535,148.605"/>
            <path d="M63.2535,147.018 L63.6023,147.812"/>
            <path d="M64.8396,139.08 L87.0646,139.08"/>
            <path d="M64.8396,148.605 L64.8396,139.08"/>
            <path d="M87.0646,148.605 L64.8396,148.605"/>
            <path d="M87.0646,139.08 L87.0646,148.605"/>
            <path d="M91.1885,145.897 L91.0366,144.743"/>
            <path d="M91.6341,146.973 L91.1885,145.897"/>
            <path d="M92.3429,147.897 L91.6341,146.973"/>
            <path d="M93.2665,148.605 L92.3429,147.897"/>
            <path d="M93.6634,147.918 L93.2665,148.605"/>
            <path d="M92.9041,147.335 L93.6634,147.918"/>
            <path d="M92.3215,146.576 L92.9041,147.335"/>
            <path d="M91.9552,145.692 L92.3215,146.576"/>
            <path d="M91.8303,144.743 L91.9552,145.692"/>
            <path d="M91.8303,123.727 L91.8303,144.743"/>
            <path d="M91.6775,123.358 L91.8303,123.727"/>
            <path d="M91.3086,123.205 L91.6775,123.358"/>
            <path d="M91.0366,123.205 L91.3086,123.205"/>
            <path d="M91.0366,144.743 L91.0366,123.205"/>
            <path d="M88.6489,148.605 L88.3,147.812"/>
            <path d="M91.0301,148.605 L88.6489,148.605"/>
            <path d="M90.6813,147.812 L91.0301,148.605"/>
            <path d="M91.0301,147.018 L90.6813,147.812"/>
            <path d="M88.6489,147.018 L91.0301,147.018"/>
            <path d="M88.3,147.812 L88.6489,147.018"/>
            <path d="M91.0327,-461.788 L87.064,-461.788"/>
            <path d="M91.0327,147.018 L91.0327,-461.788"/>
            <path d="M87.064,147.018 L91.0327,147.018"/>
            <path d="M87.064,-461.788 L87.064,147.018"/>
            <path d="M64.841,-461.784 L64.841,147.199"/>
            <path d="M60.8723,-461.784 L64.841,-461.784"/>
            <path d="M60.8723,147.199 L60.8723,147.018"/>
            <path d="M60.8723,147.018 L60.8723,-461.784"/>
            <path d="M64.841,147.199 L60.8723,147.199"/>
            <path d="M66.4264,-444.976 L66.4264,139.08"/>
            <path d="M85.4764,-444.976 L66.4264,-444.976"/>
            <path d="M85.4764,139.08 L85.4764,-444.976"/>
            <path d="M227.954,186.705 L-76.8459,186.705"/>
            <path d="M227.954,148.605 L227.954,186.705"/>
            <path d="M-76.8459,148.605 L227.954,148.605"/>
            <path d="M-76.8459,186.705 L-76.8459,148.605"/>
            <path d="M64.841,-456.232 L87.064,-456.232"/>
            <path d="M-1476.41,-8651.79 L-1476.41,-8651.78"/>
            <path d="M11096.6,-8651.78 L11096.6,-8651.79"/>
            <path d="M11096.6,5369.02 L-1476.41,5369.02"/>
            <path d="M-1476.41,5369.01 L11096.6,5369.01"/>
            <path d="M-1476.41,5369.02 L-1476.41,5369.01"/>
            <path d="M-1476.41,-8651.78 L-1476.41,5369.02"/>
            <path d="M11096.6,-8651.78 L-1476.41,-8651.78"/>
            <path d="M11096.6,5369.02 L11096.6,-8651.78"/>
            <path d="M11096.6,5369.01 L11096.6,5369.02"/>
            <path d="M11096.6,-8651.79 L11096.6,5369.01"/>
            <path d="M-1476.41,-8651.79 L11096.6,-8651.79"/>
            <path d="M-1476.41,5369.01 L-1476.41,-8651.79"/>
        </g>
    </g>
</svg>